\relax 
\catcode `"\active 
\select@language {ukrainian}
\@writefile{toc}{\select@language {ukrainian}}
\@writefile{lof}{\select@language {ukrainian}}
\@writefile{lot}{\select@language {ukrainian}}
\@writefile{toc}{\contentsline {section}{\numberline {1}Створення сервісу CounterStorage}{1}}
\@writefile{toc}{\contentsline {subsubsection}{\numberline {1.0.1}Створення проекту з базового шаблону}{1}}
\@writefile{toc}{\contentsline {subsubsection}{\numberline {1.0.2}Налаштування оточення розробки}{1}}
\@writefile{lol}{\contentsline {lstlisting}{../docker\textendash compose.yml}{2}}
\@writefile{toc}{\contentsline {subsubsection}{\numberline {1.0.3}Підключення статичного аналізу коду для проекту}{2}}
\@writefile{lol}{\contentsline {lstlisting}{../Makefile}{2}}
\@writefile{toc}{\contentsline {subsubsection}{\numberline {1.0.4}Створення docker образу}{2}}
\@writefile{lol}{\contentsline {lstlisting}{../Dockerfile}{2}}
\@writefile{toc}{\contentsline {subsubsection}{\numberline {1.0.5}Налаштування CI для збірки додатку}{3}}
\@writefile{lol}{\contentsline {lstlisting}{../.gitlab\textendash ci.yml}{3}}
\@writefile{toc}{\contentsline {section}{\numberline {2}Розгортання проекту}{4}}
\@writefile{lol}{\contentsline {lstlisting}{../deploy/docker\textendash compose.yml}{4}}
\@writefile{lol}{\contentsline {lstlisting}{../deploy/deploy.log}{4}}
\@writefile{toc}{\contentsline {section}{\numberline {3}Висновок}{8}}
\newlabel{LastPage}{{}{8}}
\xdef\lastpage@lastpage{8}
\gdef\lastpage@lastpageHy{}
